{
    "concurrency": 20,
    "recurse": true,
    "skip": [
        "amazon.fr",
        "cnil.fr",
        "facebook.com",
        "gstatic.com",
        "linkedin.com",
        "michaelaguilar.fr",
        "midjourney.com",
        "science.org",
        "twitter.com",
        "unfix.circle.so",
        "makestorming.com",
        "univ-lille.fr"
    ],
    "verbosity": "error"
}
