<?xml version="1.0" encoding="UTF-8" standalone="no"?>
<!-- Created with Inkscape (http://www.inkscape.org/) -->

<svg
   width="231.01469mm"
   height="446.20526mm"
   viewBox="0 0 231.01469 446.20526"
   version="1.1"
   id="svg1048"
   inkscape:version="1.2.2 (b0a8486541, 2022-12-01)"
   sodipodi:docname="favicon-white.svg"
   xmlns:inkscape="http://www.inkscape.org/namespaces/inkscape"
   xmlns:sodipodi="http://sodipodi.sourceforge.net/DTD/sodipodi-0.dtd"
   xmlns="http://www.w3.org/2000/svg"
   xmlns:svg="http://www.w3.org/2000/svg"
   xmlns:serif="http://www.serif.com/">
  <sodipodi:namedview
     id="namedview1050"
     pagecolor="#ffffff"
     bordercolor="#666666"
     borderopacity="1.0"
     inkscape:pageshadow="2"
     inkscape:pageopacity="0.0"
     inkscape:pagecheckerboard="0"
     inkscape:document-units="mm"
     showgrid="false"
     inkscape:zoom="0.33184273"
     inkscape:cx="100.95144"
     inkscape:cy="786.51716"
     inkscape:window-width="1920"
     inkscape:window-height="1011"
     inkscape:window-x="0"
     inkscape:window-y="0"
     inkscape:window-maximized="1"
     inkscape:current-layer="layer1"
     inkscape:showpageshadow="2"
     inkscape:deskcolor="#d1d1d1" />
  <defs
     id="defs1045" />
  <g
     inkscape:label="Calque 1"
     inkscape:groupmode="layer"
     id="layer1"
     transform="translate(-0.10338533,150.14828)">
    <path
       id="o1"
       serif:id="o"
       d="M 216.02386,14.24314 C 205.94607,-3.4044281 191.90098,-17.449519 174.29899,-27.436127 156.74264,-37.468336 137.04304,-42.53004 115.79298,-42.53004 c -21.523647,0 -41.314453,5.061704 -58.916415,15.093913 C 39.228989,-17.403918 25.229515,-3.3588271 15.197309,14.24314 5.1650761,31.799503 0.10338533,51.590315 0.10338533,73.113949 c 0,21.295651 5.06169077,40.995251 15.09392367,58.506041 10.032206,17.60196 24.077294,31.64705 41.679256,41.72485 17.556374,9.98661 37.392768,15.09392 58.916415,15.09392 21.29565,0 40.94966,-5.06172 58.50601,-15.09392 17.60199,-10.03221 31.64708,-24.0773 41.72487,-41.72485 10.03221,-17.55637 15.09392,-37.255978 15.09392,-58.506041 0.0456,-21.478033 -5.06171,-41.268845 -15.09392,-58.870809 z m -40.90405,94.84996 c -5.92812,10.62503 -13.86269,18.69639 -24.30529,24.76132 -10.44263,6.06494 -21.88845,8.9834 -35.02154,8.9834 -13.13307,0 -24.578896,-2.96407 -35.021524,-8.9834 -10.442601,-6.06493 -18.468393,-14.22749 -24.533304,-24.85252 -6.110526,-10.716207 -9.0746,-22.435661 -9.0746,-35.887951 0,-13.406675 2.964074,-25.126108 9.0746,-35.842331 6.110525,-10.716223 14.13629,-18.924394 24.624506,-25.08052 10.397013,-6.1561295 21.842862,-9.1201904 34.930322,-9.1201904 13.08748,0 24.53333,2.9640609 34.93034,9.1201904 10.4426,6.156126 18.42278,14.318697 24.39649,25.034919 5.92812,10.57942 8.93781,22.663661 8.93781,35.887932 0,13.45229 -2.91849,25.217332 -8.93781,35.979151 z"
       style="clip-rule:evenodd;fill:#ffffff;fill-opacity:1;fill-rule:nonzero;stroke-width:4.56009;stroke-linejoin:round;stroke-miterlimit:2" />
    <g
       id="points-bleus"
       serif:id="points bleus"
       transform="matrix(4.5600948,0,0,4.5600948,-1241.6559,-1179.8633)"
       style="clip-rule:evenodd;fill-rule:evenodd;stroke-linejoin:round;stroke-miterlimit:2">
      <g
         id="haut4"
         serif:id="haut">
        <circle
           id="cercle-haut4"
           serif:id="cercle haut"
           cx="297.64001"
           cy="232.69"
           r="6.8800001"
           style="fill:#118ab2" />
      </g>
      <g
         id="bas4"
         serif:id="bas">
        <circle
           id="cercle-bas4"
           serif:id="cercle bas"
           cx="297.64001"
           cy="316.78"
           r="6.8800001"
           style="fill:#118ab2" />
      </g>
    </g>
  </g>
</svg>
