<?xml version="1.0" encoding="UTF-8" standalone="no"?>
<!-- Created with Inkscape (http://www.inkscape.org/) -->

<svg
   width="2304"
   height="4096"
   viewBox="0 0 609.59998 1083.7334"
   version="1.1"
   id="svg5"
   inkscape:version="1.2.2 (b0a8486541, 2022-12-01)"
   sodipodi:docname="mobile-poster.svg"
   inkscape:export-filename="/home/tom/workspace/gitlab.com/aqoba/aqoba.fr/static/images/mobile-poster.png"
   inkscape:export-xdpi="25"
   inkscape:export-ydpi="25"
   xmlns:inkscape="http://www.inkscape.org/namespaces/inkscape"
   xmlns:sodipodi="http://sodipodi.sourceforge.net/DTD/sodipodi-0.dtd"
   xmlns="http://www.w3.org/2000/svg"
   xmlns:svg="http://www.w3.org/2000/svg"
   xmlns:serif="http://www.serif.com/">
  <sodipodi:namedview
     id="namedview7"
     pagecolor="#ffffff"
     bordercolor="#666666"
     borderopacity="1.0"
     inkscape:pageshadow="2"
     inkscape:pageopacity="0.0"
     inkscape:pagecheckerboard="0"
     inkscape:document-units="mm"
     showgrid="false"
     units="px"
     width="1e-05px"
     height="2304px"
     showguides="true"
     inkscape:guide-bbox="true"
     inkscape:zoom="0.17801611"
     inkscape:cx="1671.1971"
     inkscape:cy="2067.2286"
     inkscape:window-width="1920"
     inkscape:window-height="1011"
     inkscape:window-x="0"
     inkscape:window-y="0"
     inkscape:window-maximized="1"
     inkscape:current-layer="layer1"
     inkscape:showpageshadow="2"
     inkscape:deskcolor="#d1d1d1" />
  <defs
     id="defs2" />
  <g
     inkscape:label="Calque 1"
     inkscape:groupmode="layer"
     id="layer1">
    <g
       style="clip-rule:evenodd;fill-rule:evenodd;stroke-linejoin:round;stroke-miterlimit:2"
       id="g14665"
       transform="matrix(0.07531092,0,0,0.07531092,126.28566,477.94745)">
      <path
         id="a11"
         serif:id="a1"
         d="M 816.24979,626.8371 C 778.33278,560.13763 725.24897,507.22617 658.5495,469.13681 592.19474,431.39215 517.73952,412.08895 437.4244,412.08895 c -81.34922,0 -156.32148,19.13085 -222.67625,57.04786 C 148.22103,507.05382 95.13722,560.13763 57.047864,626.8371 19.303205,693.19186 0,768.16413 0,849.34095 c 0,80.4875 19.130855,154.77045 57.047864,221.29755 38.089356,66.6994 91.173166,119.6108 157.700286,157.5279 66.35477,37.9169 141.15468,57.0479 222.67625,57.0479 73.42112,0 140.98233,-16.2009 200.96015,-47.9133 20.682,-10.8581 39.81286,-23.2673 57.56491,-37.0553 2.4129,19.8203 11.0304,37.2276 24.81841,50.8433 16.71795,16.8903 38.60641,25.8525 63.42481,25.8525 32.91886,0 53.60086,-14.4774 64.97597,-26.7143 15.68385,-16.5456 23.95665,-38.0894 23.95665,-62.2183 V 849.51335 C 873.29765,767.99178 854.1668,693.19186 816.24979,626.8371 Z m -378.65304,486.1995 c -49.63681,0 -92.89667,-11.2027 -132.36483,-33.9529 -39.64051,-23.095 -69.97412,-53.7733 -92.72432,-93.93085 -23.09491,-40.6746 -34.29766,-84.9686 -34.29766,-135.6395 0,-49.9815 11.54745,-95.48192 34.29766,-135.46713 22.92256,-40.32991 53.25616,-71.35292 92.89667,-94.79252 39.46816,-23.26726 82.55567,-34.47001 132.19248,-34.47001 49.46446,0 92.55197,11.20275 132.02013,34.47001 39.64051,23.26725 69.80177,54.29026 92.20727,94.62017 22.40551,39.98521 33.78061,85.65798 33.78061,135.81178 0,50.8433 -11.0304,95.3096 -33.78061,135.8119 -22.4055,39.98515 -52.39441,70.66345 -91.86257,93.58605 -39.64051,22.7502 -82.90037,33.9529 -132.36483,33.953 z"
         style="fill:#41463b;fill-rule:nonzero;stroke-width:17.235" />
      <path
         id="q1"
         serif:id="q"
         d="m 1780.7207,622.18365 c -38.6065,-65.66537 -91.6903,-117.54273 -157.7003,-154.42564 -65.8377,-36.71056 -139.4312,-55.49671 -218.7122,-55.49671 -81.3493,0 -156.3215,19.13085 -222.5039,57.04786 -66.5272,37.91701 -119.611,91.00082 -157.7003,157.70029 -37.74474,66.35476 -57.04793,141.15468 -57.04793,222.5039 0,80.4875 19.13089,154.94265 57.04793,221.29745 38.0893,66.6994 91.1731,119.7833 157.7003,157.5279 66.3547,37.917 141.1546,57.048 222.5039,57.048 73.4211,0 141.1546,-16.2011 201.1325,-47.9134 20.3373,-10.858 39.2958,-22.9225 56.8755,-36.5382 v 407.6079 c 0,32.9188 14.4774,53.4285 26.5419,64.8036 16.5456,15.6838 38.0893,24.1289 62.3907,24.1289 32.2295,0 52.5668,-13.4432 64.1142,-24.9908 11.3751,-11.3751 24.8184,-31.7123 24.8184,-63.9418 V 840.72345 c -1.0341,-79.62567 -21.0267,-153.04679 -59.4607,-218.5398 z m -635.627,227.1573 c 0,-50.6709 11.2028,-94.96482 34.2977,-135.46708 22.9225,-40.50226 53.2561,-71.35292 92.8966,-94.79252 39.4682,-23.26726 82.7281,-34.47001 132.1925,-34.47001 49.4645,0 92.7243,11.20275 132.0201,34.47001 39.6406,23.26725 69.8018,54.29026 92.2073,94.62017 22.4055,39.98521 33.7806,85.83033 33.7806,135.81183 0,50.6709 -11.0304,95.1372 -33.7806,135.8118 -22.4055,39.98525 -52.3944,70.66355 -91.8626,93.58615 -39.4681,22.9226 -82.728,33.953 -132.3648,33.953 -49.4644,0 -92.8967,-11.2028 -132.3648,-33.953 -39.4682,-22.9226 -69.8018,-53.7732 -92.7243,-93.93085 -23.2673,-40.5022 -34.2977,-84.9685 -34.2977,-135.6395 z"
         style="fill:#41463b;fill-rule:nonzero;stroke-width:17.235" />
      <path
         id="o1"
         serif:id="o"
         d="m 2749.8449,626.8371 c -38.0893,-66.69947 -91.1731,-119.78328 -157.7003,-157.52794 -66.3547,-37.91701 -140.8099,-57.04786 -221.1251,-57.04786 -81.3492,0 -156.1491,19.13085 -222.6762,57.04786 -66.6995,37.91701 -119.6109,91.00082 -157.5279,157.52794 -37.9171,66.35476 -57.0479,141.15468 -57.0479,222.50385 0,80.4875 19.1308,154.94275 57.0479,221.12525 37.917,66.5271 91.0008,119.6108 157.5279,157.7002 66.3548,37.7447 141.327,57.0479 222.6762,57.0479 80.4875,0 154.7704,-19.131 221.1251,-57.0479 66.5272,-37.917 119.611,-91.0008 157.7003,-157.7002 37.917,-66.3549 57.0479,-140.81005 57.0479,-221.12525 0.1723,-81.17682 -19.1309,-155.97674 -57.0479,-222.50385 z m -154.598,358.48805 c -22.4055,40.15765 -52.3944,70.66355 -91.8625,93.58615 -39.4682,22.9226 -82.728,33.953 -132.3649,33.953 -49.6368,0 -92.8966,-11.2028 -132.3648,-33.953 -39.4681,-22.9226 -69.8018,-53.7732 -92.7243,-93.93085 -23.0949,-40.5022 -34.2977,-84.7962 -34.2977,-135.6395 0,-50.6709 11.2028,-94.96482 34.2977,-135.46708 23.0949,-40.50226 53.4285,-71.52527 93.069,-94.79252 39.2958,-23.26726 82.5557,-34.47001 132.0201,-34.47001 49.4645,0 92.7244,11.20275 132.0202,34.47001 39.4681,23.26725 69.6294,54.11791 92.2072,94.62017 22.4055,39.98521 33.7807,85.65793 33.7807,135.63943 0,50.8433 -11.0305,95.3096 -33.7807,135.9842 z"
         style="fill:#41463b;fill-rule:nonzero;stroke-width:17.235" />
      <path
         id="b1"
         serif:id="b"
         d="m 3716.7287,626.8371 c -38.0894,-66.69947 -91.0009,-119.61093 -157.7003,-157.70029 -66.3548,-37.91701 -141.1547,-57.04786 -222.5039,-57.04786 -73.4212,0 -141.1547,16.2009 -201.1325,47.91331 -20.3373,10.85805 -39.2958,22.92255 -56.7032,36.53821 V 88.93262 c 0,-32.0571 -13.4433,-52.56676 -24.9908,-64.11421 C 3042.3229,13.44331 3021.9856,0 2989.7562,0 c -24.129,0 -45.6728,8.2728 -62.2184,23.95666 -12.2368,11.54745 -26.7142,32.0571 -26.7142,64.97596 v 767.81943 c 1.0341,79.4534 21.0267,152.87445 59.4607,218.36755 38.4341,65.493 91.5179,117.5427 157.7003,154.598 65.8377,36.7105 139.4312,55.4967 218.7122,55.4967 81.3492,0 156.1492,-19.131 222.5039,-57.0479 66.5271,-37.917 119.6109,-91.0008 157.7003,-157.7002 37.917,-66.3549 57.0479,-141.15475 57.0479,-222.50405 -0.1724,-80.31507 -19.3032,-154.59794 -57.2202,-221.12505 z m -155.1151,356.76455 c -23.0949,40.50235 -53.4285,71.52535 -93.069,94.79265 -39.4682,23.2672 -82.728,34.6423 -132.0201,34.6423 -49.2921,0 -92.552,-11.3751 -132.1925,-34.6423 -39.2958,-23.2673 -69.4571,-54.118 -92.2073,-94.44795 -22.5778,-40.6746 -33.6082,-84.9685 -33.6082,-135.8118 0,-50.1539 11.3751,-95.82662 33.6082,-135.81183 22.5779,-40.15756 52.5668,-70.83587 91.8626,-93.58607 39.6405,-22.92256 82.9004,-34.12531 132.3648,-34.12531 49.4645,0 92.8967,11.20275 132.3648,34.12531 39.4682,22.92255 69.8018,53.60086 92.7244,93.93077 22.7502,39.98521 34.2976,85.65793 34.2976,135.46713 0.1724,50.4986 -11.0304,94.7925 -34.1253,135.4671 z"
         style="fill:#41463b;fill-rule:nonzero;stroke-width:17.235" />
      <path
         d="m 3924.4794,626.9233 c 37.917,-66.69947 91.0008,-119.61093 157.7003,-157.70029 66.3547,-37.74466 140.8099,-57.04786 221.1251,-57.04786 81.3492,0 156.3214,19.13085 222.6762,57.04786 66.5271,37.91701 119.6109,91.00082 157.7003,157.70029 37.7447,66.35476 57.0479,141.32703 57.0479,222.50385 0,80.4875 -19.1309,154.77035 -57.0479,221.29755 -38.0894,66.6995 -91.1732,119.6109 -157.7003,157.5279 -66.3548,37.917 -141.1547,57.0479 -222.6762,57.0479 -73.4212,0 -140.9824,-16.2009 -200.9602,-47.9133 -20.682,-10.8581 -39.8128,-23.2673 -57.5649,-37.0553 -2.4129,19.8203 -11.0304,37.2276 -24.8184,50.8433 -16.718,16.8903 -38.6064,25.8525 -63.4248,25.8525 -32.9189,0 -53.6009,-14.4774 -64.976,-26.7143 -15.6838,-16.5456 -23.9566,-38.0893 -23.9566,-62.2183 V 849.59955 c -0.1724,-81.52157 18.9585,-156.32149 56.8755,-222.67625 z m 378.653,486.1995 c 49.6368,0 92.8967,-11.2027 132.3648,-33.9529 39.6405,-23.095 69.9742,-53.7733 92.7244,-93.93085 23.0949,-40.6746 34.2976,-84.9686 34.2976,-135.6395 0,-49.9815 -11.5474,-95.48192 -34.2976,-135.46713 -22.9226,-40.32991 -53.2562,-71.35292 -92.8967,-94.79252 -39.4682,-23.26726 -82.5557,-34.47001 -132.1925,-34.47001 -49.4645,0 -92.552,11.20275 -132.0201,34.47001 -39.6405,23.26725 -69.8018,54.29026 -92.2073,94.62017 -22.4055,39.98521 -33.7806,85.65798 -33.7806,135.81178 0,50.8433 11.0304,95.3096 33.7806,135.8119 22.4055,39.98525 52.3944,70.66345 91.8626,93.58615 39.6405,22.7502 82.9003,33.9529 132.3648,33.9529 z"
         style="fill:#41463b;fill-rule:nonzero;stroke-width:17.235"
         id="path20" />
      <g
         id="haut4"
         serif:id="haut"
         transform="matrix(17.235004,0,0,17.235004,-2759.4618,-3886.3211)">
        <circle
           id="cercle-haut4"
           serif:id="cercle haut"
           cx="297.64001"
           cy="232.69"
           r="6.8800001"
           style="fill:#118ab2" />
      </g>
      <g
         id="bas4"
         serif:id="bas"
         transform="matrix(17.235004,0,0,17.235004,-2759.4618,-3886.3211)">
        <circle
           id="cercle-bas4"
           serif:id="cercle bas"
           cx="297.64001"
           cy="316.78"
           r="6.8800001"
           style="fill:#118ab2" />
      </g>
    </g>
  </g>
</svg>
