<?xml version="1.0" encoding="UTF-8" standalone="no"?>
<!-- Created with Inkscape (http://www.inkscape.org/) -->

<svg
   width="328.89075mm"
   height="330.20267mm"
   viewBox="0 0 328.89075 330.20267"
   version="1.1"
   id="svg5"
   xml:space="preserve"
   inkscape:version="1.2.2 (b0a8486541, 2022-12-01)"
   sodipodi:docname="unlock-transformation_icon_bg-black.svg"
   xmlns:inkscape="http://www.inkscape.org/namespaces/inkscape"
   xmlns:sodipodi="http://sodipodi.sourceforge.net/DTD/sodipodi-0.dtd"
   xmlns="http://www.w3.org/2000/svg"
   xmlns:svg="http://www.w3.org/2000/svg"><sodipodi:namedview
     id="namedview7"
     pagecolor="#ffffff"
     bordercolor="#666666"
     borderopacity="1.0"
     inkscape:showpageshadow="2"
     inkscape:pageopacity="0.0"
     inkscape:pagecheckerboard="0"
     inkscape:deskcolor="#d1d1d1"
     inkscape:document-units="mm"
     showgrid="false"
     inkscape:zoom="0.42737722"
     inkscape:cx="1042.4046"
     inkscape:cy="526.46699"
     inkscape:window-width="1920"
     inkscape:window-height="1011"
     inkscape:window-x="0"
     inkscape:window-y="0"
     inkscape:window-maximized="1"
     inkscape:current-layer="layer1" /><defs
     id="defs2" /><g
     inkscape:label="Calque 1"
     inkscape:groupmode="layer"
     id="layer1"
     transform="translate(62.770901,51.238506)"><path
       id="path351"
       style="stroke-width:0.171429;fill:#000000"
       d="m 133.1657,-18.217312 v 70.269096 c 34.58725,0.318599 62.69954,28.611461 62.69954,63.271596 0,34.66012 -28.11229,62.95299 -62.69954,63.27159 v 66.50395 h 20.32486 c 3.08574,0 5.48547,-2.05735 6.1712,-4.80022 2.74287,-10.28578 3.77126,-21.4287 4.97127,-31.88591 5.31433,-1.7143 10.62915,-3.9429 15.6006,-6.51433 l 23.65696,18.51463 c 1.37142,0.85715 2.91422,1.54254 4.45709,1.54254 5.82861,0 28.97204,-25.20023 33.08635,-30.68598 1.02859,-1.20001 1.54254,-2.40006 1.54254,-3.94291 0,-1.54287 -0.68553,-3.08552 -1.71411,-4.28553 -6.34289,-7.71433 -12.51445,-15.25742 -18.34306,-23.65747 2.74288,-4.97147 4.80017,-10.11433 6.68589,-15.60008 l 31.71435,-4.79971 c 2.74288,-0.5143 4.80022,-3.60027 4.80022,-6.17172 V 94.754604 c 0,-2.914305 -2.05748,-5.656914 -4.97179,-6.1712 l -31.37121,-4.800223 c -1.7143,-5.657181 -4.11472,-11.314256 -7.02903,-16.800009 5.82862,-8.057193 12.17185,-15.600139 18.00045,-23.485904 0.85715,-1.200009 1.3715,-2.400045 1.3715,-3.942912 0,-1.371437 -0.34331,-2.742768 -1.20045,-3.771346 -7.20005,-10.114353 -19.19984,-20.74287 -28.28561,-29.1429243 -1.20002,-1.0285782 -2.74317,-1.714624 -4.28604,-1.714624 -1.54287,0 -3.08538,0.5144801 -4.11396,1.5430583 L 179.8905,24.811586 c -4.97148,-2.571445 -10.11419,-4.628985 -15.42852,-6.343282 l -4.80022,-31.542777 c -0.34286,-2.914305 -3.08546,-5.142839 -6.1712,-5.142839 z" /><rect
       style="fill:#ffffff;stroke-width:3;stroke-linecap:round;stroke-linejoin:round;stop-color:#000000;fill-opacity:1"
       id="rect567"
       width="21.532055"
       height="21.681273"
       x="-13.227264"
       y="79.647057" /><rect
       style="fill:#ffffff;stroke-width:3;stroke-linecap:round;stroke-linejoin:round;stop-color:#000000;fill-opacity:1"
       id="rect567-3"
       width="21.532055"
       height="21.681273"
       x="-13.227264"
       y="103.02219" /><rect
       style="fill:#ffffff;stroke-width:3;stroke-linecap:round;stroke-linejoin:round;stop-color:#000000;fill-opacity:1"
       id="rect567-3-6"
       width="21.532055"
       height="21.681273"
       x="11.544554"
       y="103.02219" /><rect
       style="fill:#ffffff;stroke-width:3;stroke-linecap:round;stroke-linejoin:round;stop-color:#000000;fill-opacity:1"
       id="rect567-3-7"
       width="21.532055"
       height="21.681273"
       x="36.316372"
       y="127.09522" /><rect
       style="fill:#ffffff;stroke-width:3;stroke-linecap:round;stroke-linejoin:round;stop-color:#000000;fill-opacity:1"
       id="rect567-3-5"
       width="21.532055"
       height="21.681273"
       x="36.316372"
       y="79.647057" /><rect
       style="fill:#ffffff;stroke-width:3;stroke-linecap:round;stroke-linejoin:round;stop-color:#000000;fill-opacity:1"
       id="rect567-3-3"
       width="21.532055"
       height="21.681273"
       x="36.316372"
       y="54.876129" /><rect
       style="fill:#ffffff;stroke-width:3;stroke-linecap:round;stroke-linejoin:round;stop-color:#000000;fill-opacity:1"
       id="rect567-3-56"
       width="21.532055"
       height="21.681273"
       x="61.088192"
       y="54.876129" /><rect
       style="fill:#ffffff;stroke-width:3;stroke-linecap:round;stroke-linejoin:round;stop-color:#000000;fill-opacity:1"
       id="rect567-3-2"
       width="21.532055"
       height="21.681273"
       x="85.860008"
       y="54.876129" /><rect
       style="fill:#ffffff;stroke-width:3;stroke-linecap:round;stroke-linejoin:round;stop-color:#000000;fill-opacity:1"
       id="rect567-3-9"
       width="21.532055"
       height="21.681273"
       x="109.28751"
       y="30.803097" /><rect
       style="fill:#ffffff;stroke-width:3;stroke-linecap:round;stroke-linejoin:round;stop-color:#000000;fill-opacity:1"
       id="rect567-3-1"
       width="21.532055"
       height="21.681273"
       x="85.860008"
       y="30.803097" /><rect
       style="fill:#ffffff;stroke-width:3;stroke-linecap:round;stroke-linejoin:round;stop-color:#000000;fill-opacity:1"
       id="rect567-3-27"
       width="21.532055"
       height="21.681273"
       x="61.088192"
       y="30.803097" /><rect
       style="fill:#ffffff;stroke-width:3;stroke-linecap:round;stroke-linejoin:round;stop-color:#000000;fill-opacity:1"
       id="rect567-3-0"
       width="21.532055"
       height="21.681273"
       x="85.860008"
       y="6.730063" /><rect
       style="fill:#ffffff;stroke-width:3;stroke-linecap:round;stroke-linejoin:round;stop-color:#000000;fill-opacity:1"
       id="rect567-3-93"
       width="21.532055"
       height="21.681273"
       x="109.28751"
       y="6.730063" /><rect
       style="fill:#ffffff;stroke-width:3;stroke-linecap:round;stroke-linejoin:round;stop-color:#000000;fill-opacity:1"
       id="rect567-3-60"
       width="21.532055"
       height="21.681273"
       x="85.860008"
       y="-17.342968" /><rect
       style="fill:#ffffff;stroke-width:3;stroke-linecap:round;stroke-linejoin:round;stop-color:#000000;fill-opacity:1"
       id="rect567-3-62"
       width="21.532055"
       height="21.681273"
       x="61.088192"
       y="-17.342968" /><rect
       style="fill:#ffffff;stroke-width:3;stroke-linecap:round;stroke-linejoin:round;stop-color:#000000;fill-opacity:1"
       id="rect567-3-61"
       width="21.532055"
       height="21.681273"
       x="85.860008"
       y="-41.416" /><rect
       style="fill:#ffffff;stroke-width:3;stroke-linecap:round;stroke-linejoin:round;stop-color:#000000;fill-opacity:1"
       id="rect567-3-8"
       width="21.532055"
       height="21.681273"
       x="61.088192"
       y="79.647057" /><rect
       style="fill:#ffffff;stroke-width:3;stroke-linecap:round;stroke-linejoin:round;stop-color:#000000;fill-opacity:1"
       id="rect567-3-79"
       width="21.532055"
       height="21.681273"
       x="61.088192"
       y="103.02219" /><rect
       style="fill:#ffffff;stroke-width:3;stroke-linecap:round;stroke-linejoin:round;stop-color:#000000;fill-opacity:1"
       id="rect567-3-20"
       width="21.532055"
       height="21.681273"
       x="61.088192"
       y="127.09522" /><rect
       style="fill:#ffffff;stroke-width:3;stroke-linecap:round;stroke-linejoin:round;stop-color:#000000;fill-opacity:1"
       id="rect567-3-23"
       width="21.532055"
       height="21.681273"
       x="61.088192"
       y="151.16826" /><rect
       style="fill:#ffffff;stroke-width:3;stroke-linecap:round;stroke-linejoin:round;stop-color:#000000;fill-opacity:1"
       id="rect567-3-75"
       width="21.532055"
       height="21.681273"
       x="85.860008"
       y="151.16826" /><rect
       style="fill:#ffffff;stroke-width:3;stroke-linecap:round;stroke-linejoin:round;stop-color:#000000;fill-opacity:1"
       id="rect567-3-92"
       width="21.532055"
       height="21.681273"
       x="85.860008"
       y="175.24129" /><rect
       style="fill:#ffffff;stroke-width:3;stroke-linecap:round;stroke-linejoin:round;stop-color:#000000;fill-opacity:1"
       id="rect567-3-28"
       width="21.532055"
       height="21.681273"
       x="109.28751"
       y="199.31433" /><rect
       style="fill:#ffffff;stroke-width:3;stroke-linecap:round;stroke-linejoin:round;stop-color:#000000;fill-opacity:1"
       id="rect567-3-97"
       width="21.532055"
       height="21.681273"
       x="109.28751"
       y="223.38736" /><rect
       style="fill:#ffffff;stroke-width:3;stroke-linecap:round;stroke-linejoin:round;stop-color:#000000;fill-opacity:1"
       id="rect567-3-36"
       width="21.532055"
       height="21.681273"
       x="85.860008"
       y="199.31433" /><rect
       style="fill:#ffffff;stroke-width:3;stroke-linecap:round;stroke-linejoin:round;stop-color:#000000;fill-opacity:1"
       id="rect567-3-12"
       width="21.532055"
       height="21.681273"
       x="61.088192"
       y="199.31433" /><rect
       style="fill:#ffffff;stroke-width:3;stroke-linecap:round;stroke-linejoin:round;stop-color:#000000;fill-opacity:1"
       id="rect567-3-931"
       width="21.532055"
       height="21.681273"
       x="85.860008"
       y="247.46039" /><rect
       style="fill:#ffffff;stroke-width:3;stroke-linecap:round;stroke-linejoin:round;stop-color:#000000;fill-opacity:1"
       id="rect567-3-94"
       width="21.532055"
       height="21.681273"
       x="36.316372"
       y="175.24129" /><rect
       style="fill:#ffffff;stroke-width:3;stroke-linecap:round;stroke-linejoin:round;stop-color:#000000;fill-opacity:1"
       id="rect567-3-78"
       width="21.532055"
       height="21.681273"
       x="36.316372"
       y="199.31433" /><rect
       style="fill:#ffffff;stroke-width:3;stroke-linecap:round;stroke-linejoin:round;stop-color:#000000;fill-opacity:1"
       id="rect567-3-4"
       width="21.532055"
       height="21.681273"
       x="36.316372"
       y="223.38736" /><rect
       style="fill:#ffffff;stroke-width:3;stroke-linecap:round;stroke-linejoin:round;stop-color:#000000;fill-opacity:1"
       id="rect567-3-50"
       width="21.532055"
       height="21.681273"
       x="11.544554"
       y="223.38736" /><rect
       style="fill:#ffffff;stroke-width:3;stroke-linecap:round;stroke-linejoin:round;stop-color:#000000;fill-opacity:1"
       id="rect567-3-361"
       width="21.532055"
       height="21.681273"
       x="11.544554"
       y="175.24129" /><rect
       style="fill:#ffffff;stroke-width:3;stroke-linecap:round;stroke-linejoin:round;stop-color:#000000;fill-opacity:1"
       id="rect567-3-06"
       width="21.532055"
       height="21.681273"
       x="11.544554"
       y="151.16826" /><rect
       style="fill:#ffffff;stroke-width:3;stroke-linecap:round;stroke-linejoin:round;stop-color:#000000;fill-opacity:1"
       id="rect567-3-32"
       width="21.532055"
       height="21.681273"
       x="-13.227264"
       y="151.16826" /><rect
       style="fill:#ffffff;stroke-width:3;stroke-linecap:round;stroke-linejoin:round;stop-color:#000000;fill-opacity:1"
       id="rect567-3-061"
       width="21.532055"
       height="21.681273"
       x="-13.227264"
       y="199.31433" /><rect
       style="fill:#ffffff;stroke-width:3;stroke-linecap:round;stroke-linejoin:round;stop-color:#000000;fill-opacity:1"
       id="rect567-3-55"
       width="21.532055"
       height="21.681273"
       x="-37.999084"
       y="199.31433" /><rect
       style="fill:#ffffff;stroke-width:3;stroke-linecap:round;stroke-linejoin:round;stop-color:#000000;fill-opacity:1"
       id="rect567-3-47"
       width="21.532055"
       height="21.681273"
       x="-37.999084"
       y="223.38736" /><rect
       style="fill:#ffffff;stroke-width:3;stroke-linecap:round;stroke-linejoin:round;stop-color:#000000;fill-opacity:1"
       id="rect567-3-65"
       width="21.532055"
       height="21.681273"
       x="-13.227264"
       y="247.46039" /><rect
       style="fill:#ffffff;stroke-width:3;stroke-linecap:round;stroke-linejoin:round;stop-color:#000000;fill-opacity:1"
       id="rect567-3-69"
       width="21.532055"
       height="21.681273"
       x="-62.770901"
       y="247.46039" /></g></svg>
