<?xml version="1.0" encoding="UTF-8" standalone="no"?>
<!-- Created with Inkscape (http://www.inkscape.org/) -->

<svg
   width="40.198341mm"
   height="76.823738mm"
   viewBox="0 0 40.198341 76.823738"
   version="1.1"
   id="svg565"
   inkscape:version="1.2.2 (b0a8486541, 2022-12-01)"
   sodipodi:docname="hand-01.svg"
   inkscape:export-filename="hand-01.png"
   inkscape:export-xdpi="40.5"
   inkscape:export-ydpi="40.5"
   xmlns:inkscape="http://www.inkscape.org/namespaces/inkscape"
   xmlns:sodipodi="http://sodipodi.sourceforge.net/DTD/sodipodi-0.dtd"
   xmlns="http://www.w3.org/2000/svg"
   xmlns:svg="http://www.w3.org/2000/svg">
  <sodipodi:namedview
     id="namedview567"
     pagecolor="#ffffff"
     bordercolor="#666666"
     borderopacity="1.0"
     inkscape:showpageshadow="2"
     inkscape:pageopacity="0.0"
     inkscape:pagecheckerboard="0"
     inkscape:deskcolor="#d1d1d1"
     inkscape:document-units="mm"
     showgrid="false"
     inkscape:zoom="0.2102413"
     inkscape:cx="392.40625"
     inkscape:cy="1222.4049"
     inkscape:window-width="1920"
     inkscape:window-height="1011"
     inkscape:window-x="0"
     inkscape:window-y="0"
     inkscape:window-maximized="1"
     inkscape:current-layer="layer1" />
  <defs
     id="defs562" />
  <g
     inkscape:label="Calque 1"
     inkscape:groupmode="layer"
     id="layer1"
     transform="translate(-0.03642274,174.32712)">
    <path
       d="m 24.181619,-154.80871 c -2.783417,-0.51673 -5.971117,-0.0534 -7.143751,2.91042 -2.744787,-0.62733 -6.219031,-0.92763 -7.6729159,2.11667 -3.190874,-1.03796 -6.594474,-1.07236 -8.366627,2.38521 -1.07143,2.09021 -0.629206,4.86199 -0.629206,7.13979 0,5.61736 -1.123235,12.63411 0.758031,17.99166 0.965994,2.75087 2.917032,4.32964 4.533636,6.61458 -1.280319,0.49742 -2.155825,1.32186 -2.616994,2.64583 -0.437356,1.25545 -0.293423,2.66092 -0.293423,3.96875 0,3.17262 -1.007004,8.17695 1.87669,10.371675 1.957123,1.489341 4.812505,1.005421 7.1191429,1.005421 h 14.2875 c 1.987021,0 4.749006,0.48842 6.614583,-0.26697 4.088342,-1.655761 3.175,-7.086076 3.175,-10.580956 0,-1.5994 0.129117,-3.2557 -0.51726,-4.76144 -0.570971,-1.33006 -1.570831,-2.19736 -2.922323,-2.64689 2.740819,-2.97762 6.775186,-6.78683 7.668948,-10.84792 1.112573,-5.05619 -3.207544,-7.68032 -3.908161,-12.17083 -1.163902,-7.45781 0.207963,-15.75329 0.207963,-23.28333 0,-3.03159 0.679715,-7.1795 -1.27,-9.76569 -2.666471,-3.53693 -8.451585,-2.97548 -10.358438,1.03444 -0.802481,1.68764 -0.542395,3.74293 -0.542395,5.55625 v 10.58333 m 8.202084,11.1125 -4.497917,-1.5875 v -19.57916 c 0,-1.83449 -0.573087,-5.87735 2.38125,-5.67979 2.876815,0.19238 2.116667,4.28149 2.116667,6.20895 v 20.6375 m -8.202084,-1.5875 h -4.233334 c 0,-1.43033 -0.350573,-3.40862 0.196321,-4.75086 0.629179,-1.54357 2.874698,-1.73249 3.688292,-0.24738 0.737658,1.34594 0.348721,3.51102 0.348721,4.99824 m -10.318751,8.46667 c -2.916766,-0.62071 -1.852877,-5.92772 -1.852083,-8.20208 2.65e-4,-1.0078 -0.156104,-2.27039 0.643996,-3.03901 2.220912,-2.13439 4.278842,1.45865 3.429794,3.4925 -1.317625,3.15569 -3.44805,3.88012 -2.221707,7.74859 m -7.9335299,-9.92108 c 3.436407,-0.41725 3.507845,9.47472 0.52414,10.00548 -0.977107,0.17383 -1.839913,-0.53975 -2.183871,-1.41129 -0.722577,-1.8325 -0.954882,-8.27669 1.659731,-8.59419 m -1.856052,13.62525 3.175,0.0622 2.9104159,-1.08904 3.175,1.15069 3.96875,-0.653 c -2.075392,3.03794 -3.980921,5.86898 -4.828646,9.525 -0.325438,1.40361 0.620712,3.68485 2.418556,2.65853 1.366044,-0.77973 1.486429,-3.16336 1.993371,-4.51062 1.110985,-2.95248 3.061758,-5.94465 6.237552,-6.87916 0.05186,2.51646 0.645319,5.13794 2.256632,7.13872 0.979752,1.21629 3.566054,1.83541 3.563673,-0.52441 -0.0013,-1.13506 -1.167607,-2.13994 -1.551782,-3.17473 -0.732896,-1.97299 0.589757,-5.64012 -0.903552,-7.02892 -1.735667,-1.61422 -5.448829,-0.26697 -7.597246,-0.71782 -1.422664,-0.29844 -2.249752,-1.7465 -1.540933,-3.08953 1.084262,-2.05449 4.646877,-1.33456 6.566958,-1.33456 1.8288,0 3.890434,-0.27701 5.555192,0.6395 1.25095,0.68871 1.92114,1.86664 2.607204,3.06467 1.550723,2.70933 4.990306,6.75507 4.356629,10.05416 -0.388143,2.02009 -1.87907,3.50097 -3.14907,5.02708 -1.440657,1.73091 -2.919678,4.11216 -4.872303,5.28955 -2.704306,1.63036 -7.284508,0.79587 -10.318485,0.79587 -3.872442,0 -7.767638,-0.0643 -10.8241039,-2.76887 -3.925623,-3.47371 -3.198812,-8.93656 -3.198812,-13.6353 m 3.289828,21.06167 c 1.381125,-0.70088 4.1730089,-0.15955 5.7060039,-0.15955 h 12.700001 c 1.478491,0 3.867943,-0.45508 5.231341,0.15955 0.860955,0.38841 0.841905,1.41552 0.853017,2.2217 0.02275,1.63381 0.831321,6.91542 -0.642937,7.9301 -1.228196,0.84534 -4.256882,0.27199 -5.706005,0.27199 H 12.539952 c -1.404409,0 -3.9081609,0.48419 -5.1768379,-0.15955 -0.767291,-0.38946 -0.640026,-1.50495 -0.64373,-2.2217 -0.0079,-1.4777 -0.816504,-7.30144 0.64373,-8.04254 m 17.6133129,2.39448 c -3.8608,1.22052 -1.753923,7.00643 2.10529,5.73987 3.806031,-1.24884 1.687512,-6.93896 -2.10529,-5.73987 m 10.053108,7.76472 -0.264583,0.26459 0.264583,-0.26459 m -1.852083,1.85209 -0.264583,0.264585 0.264583,-0.264585"
       style="fill:#000000;stroke:none;stroke-width:0.264583"
       id="path555" />
  </g>
</svg>
